cpld/udisk.vcd
$date
    Thu Nov  7 08:09:32 2013
$end
$version
    GPLCVER_2.12a of 05/16/07
$end
$timescale
    1 ns
$end
$scope module udisk_test $end
$var reg       1 !    BBSY_IN $end
$var wire       1 "    BBSY_OUT $end
$var reg       1 #    BG4_IN $end
$var wire       1 $    BG4_OUT $end
$var reg       1 %    BG5_IN $end
$var wire       1 &    BG5_OUT $end
$var wire       1 '    BR4_OUT $end
$var wire       1 (    BR5_OUT $end
$var wire      18 )    BUS_ADDR [17:0] $end
$var wire       1 *    BUS_ADDR_DIR $end
$var wire      16 +    BUS_DATA [15:0] $end
$var wire       1 ,    BUS_DATA_DIR $end
$var reg       1 -    C0_IN $end
$var wire       1 .    C0_OUT $end
$var reg       1 /    C1_IN $end
$var wire       1 0    C1_OUT $end
$var wire       1 1    CF_CS0_N $end
$var wire       1 2    CF_CS1_N $end
$var wire       1 3    CF_IORD_N $end
$var wire       1 4    CF_IOWR_N $end
$var reg       1 5    CLK $end
$var reg       1 6    CPU_A0 $end
$var reg       1 7    CPU_A1 $end
$var reg       1 8    CPU_A2 $end
$var reg       1 9    CPU_A3 $end
$var wire      16 :    CPU_D [15:0] $end
$var wire       1 ;    CPU_INT $end
$var reg       1 <    CPU_RD $end
$var reg       1 =    CPU_WR $end
$var wire       1 >    DISK_RESET_N $end
$var reg       1 ?    INIT_IN $end
$var wire       1 @    INTR_OUT $end
$var wire       1 A    LED_OUT $end
$var reg       1 B    MSYN_IN $end
$var wire       1 C    MSYN_OUT $end
$var reg       1 D    NPG_IN $end
$var wire       1 E    NPG_OUT $end
$var wire       1 F    NPR_OUT $end
$var wire       1 G    PA_IN $end
$var wire       1 H    PA_OUT $end
$var wire       1 I    PB_IN $end
$var wire       1 J    PB_OUT $end
$var reg       1 K    RESET_L $end
$var reg       1 L    SACK_IN $end
$var wire       1 M    SACK_OUT $end
$var reg       1 N    SSYN_IN $end
$var wire       1 O    SSYN_OUT $end
$var reg      16 P    data [15:0] $end
$var integer      32 Q    timeout [31:0] $end
$scope task success $end
$upscope $end
$scope task failure $end
$var integer      32 `    f [31:0] $end
$upscope $end
$scope task wait_for_msyn $end
$var integer      32 ^    loops [31:0] $end
$var integer      32 _    timeout [31:0] $end
$upscope $end
$scope task wait_for_ssyn $end
$var integer      32 \    loops [31:0] $end
$var integer      32 ]    timeout [31:0] $end
$upscope $end
$scope task write_ide $end
$var reg      16 Z    data [15:0] $end
$var reg       4 [    r [3:0] $end
$upscope $end
$scope task read_ide $end
$var reg      16 X    data [15:0] $end
$var reg       4 Y    r [3:0] $end
$upscope $end
$scope task write_subreg $end
$var reg      16 V    data [15:0] $end
$var reg       8 W    subreg [7:0] $end
$upscope $end
$scope task write_reg $end
$var reg      16 T    data [15:0] $end
$var reg       4 U    r [3:0] $end
$upscope $end
$scope task read_reg $end
$var reg      16 R    data [15:0] $end
$var reg       4 S    r [3:0] $end
$upscope $end
$scope module cpld $end
$var wire       1 a    BBSY_IN $end
$var wire       1 b    BBSY_OUT $end
$var wire       1 c    BG4_IN $end
$var wire       1 d    BG4_OUT $end
$var wire       1 e    BG5_IN $end
$var wire       1 f    BG5_OUT $end
$var wire       1 g    BR4_OUT $end
$var wire       1 h    BR5_OUT $end
$var wire      18 i    BUS_ADDR [17:0] $end
$var wire       1 j    BUS_ADDR_DIR $end
$var wire      16 k    BUS_DATA [15:0] $end
$var wire       1 l    BUS_DATA_DIR $end
$var wire       1 m    C0_IN $end
$var wire       1 n    C0_OUT $end
$var wire       1 o    C1_IN $end
$var wire       1 p    C1_OUT $end
$var wire       1 q    CF_CS0_N $end
$var wire       1 r    CF_CS1_N $end
$var wire       1 s    CF_IORD_N $end
$var wire       1 t    CF_IOWR_N $end
$var wire       1 u    CLK $end
$var wire       1 v    CPU_A0 $end
$var wire       1 w    CPU_A1 $end
$var wire       1 x    CPU_A2 $end
$var wire       1 y    CPU_A3 $end
$var wire      16 z    CPU_D [15:0] $end
$var wire       1 {    CPU_INT $end
$var wire       1 |    CPU_RD $end
$var wire       1 }    CPU_WR $end
$var wire       1 "!   DATI $end
$var wire       1 ""   DATIP $end
$var wire       1 "#   DATO $end
$var wire       1 "$   DATOB $end
$var wire       1 "%   DISK_RESET_N $end
$var wire       1 "&   INIT_IN $end
$var wire       1 "'   INTR_OUT $end
$var reg       1 "(   LED_OUT $end
$var wire       1 ")   MS0 $end
$var wire       1 "*   MS1 $end
$var wire       1 "+   MS2 $end
$var wire       1 ",   MS3 $end
$var wire       1 "-   MS4 $end
$var wire       1 ".   MS5 $end
$var wire       1 "/   MS6 $end
$var wire       1 "0   MSYN_IN $end
$var wire       1 "1   MSYN_OUT $end
$var wire       1 "2   NPG_IN $end
$var wire       1 "3   NPG_OUT $end
$var wire       1 "4   NPR_OUT $end
$var wire       1 "5   PA_IN $end
$var wire       1 "6   PA_OUT $end
$var wire       1 "7   PB_IN $end
$var wire       1 "8   PB_OUT $end
$var wire       1 "9   RESET_L $end
$var wire       1 ":   SACK_IN $end
$var wire       1 ";   SACK_OUT $end
$var wire       1 "<   SS0 $end
$var wire       1 "=   SS1 $end
$var wire       1 ">   SS2 $end
$var wire       1 "?   SS3 $end
$var wire       1 "@   SSYN_IN $end
$var wire       1 "A   SSYN_OUT $end
$var wire       1 "B   addr_assert $end
$var wire       1 "C   addr_incr $end
$var wire       1 "D   addr_match $end
$var reg      16 "E   addr_match_1 [17:2] $end
$var reg      18 "F   addr_out [17:0] $end
$var wire       1 "G   addr_strobe $end
$var reg      16 "H   assert_pin [15:0] $end
$var reg      16 "I   bus_data_hold [15:0] $end
$var wire       1 "J   c1_assert $end
$var reg       2 "K   cf_enable [1:0] $end
$var wire       4 "L   cpu_addr [3:0] $end
$var wire       1 "M   cpu_int_assert $end
$var reg       1 "N   cpu_int_internal $end
$var wire       1 "O   cpu_int_reset $end
$var wire       1 "P   cpu_int_reset_write $end
$var reg       1 "Q   cpu_release $end
$var wire       1 "R   cpu_wr_edge $end
$var reg       2 "S   cpu_wr_history [1:0] $end
$var wire       1 "T   cpu_wr_sub $end
$var wire       1 "U   data_assert $end
$var wire      16 "V   data_mux [15:0] $end
$var wire       1 "W   data_strobe $end
$var reg       1 "X   disk_reset $end
$var reg       1 "Y   dma_mode $end
$var wire       1 "Z   have_match1 $end
$var wire       1 "[   msyn_assert $end
$var reg       4 "\   pass_thru [3:0] $end
$var wire       1 "]   pending_dma $end
$var reg       1 "^   pending_dma_read $end
$var reg       1 "_   pending_dma_write $end
$var wire      16 "`   reg_status [15:0] $end
$var wire       1 "a   reset $end
$var wire       1 "b   ssyn_assert $end
$var wire       1 "c   unibus_master $end
$var wire       1 "d   ustate_SS1_W $end
$var wire       1 "e   ustate_SS2_R $end
$var reg       6 "f   ustate_m [5:0] $end
$var wire       1 "g   ustate_m_start $end
$var reg       3 "h   ustate_s [2:0] $end
$var wire       1 "i   ustate_s_start $end
$upscope $end
$upscope $end
$enddefinitions $end
#0
$dumpvars
0a
xb
0c
xd
0e
xf
xg
xh
bx i
xj
bx k
xl
0m
xn
0o
xp
1q
1r
1s
1t
xu
0v
0w
0x
0y
bz z
0{
0|
0}
1"!
0""
0"#
0"$
x"%
0"&
x"'
x"(
x")
x"*
x"+
x",
x"-
x".
x"/
0"0
x"1
0"2
x"3
x"4
z"5
0"6
z"7
0"8
0"9
0":
x";
x"<
x"=
x">
x"?
0"@
x"A
x"B
x"C
x"D
bx "E
bx "F
0"G
bx "H
bx "I
x"J
bx "K
b0 "L
x"M
0"N
1"O
0"P
x"Q
x"R
bx "S
0"T
x"U
b0xxxxxx "V
x"W
x"X
x"Y
x"Z
x"[
bx "\
x"]
x"^
x"_
b0xxxxxxx00000000 "`
1"a
x"b
0"c
0"d
x"e
bx "f
x"g
bx "h
0"i
0!
x"
0#
x$
0%
x&
x'
x(
bx )
x*
bx +
x,
0-
x.
0/
x0
11
12
13
14
x5
06
07
08
09
bz :
0;
0<
0=
x>
0?
x@
xA
0B
xC
0D
xE
xF
zG
0H
zI
0J
0K
0L
xM
0N
xO
bx P
bx Q
bx R
bx S
bx T
bx U
bx V
bx W
bx X
bx Y
bx Z
bx [
bx \
bx ]
bx ^
bx _
bx `
$end
#1
0u
b0 )
05
#2
1"D
1"Z
0C
bz k
bz +
0,
b0 i
0*
0O
0"1
0l
0j
0"A
1>
0@
0'
0(
0F
0$
0&
0E
0"
0.
00
0M
0"[
0"U
0"B
0"C
0"g
0"M
0"e
0"b
1"%
0A
0"'
0g
0h
0"4
0d
0f
0"3
0b
0n
0p
0";
b0 "V
0"W
0"]
0"J
0"R
1")
0"*
0"+
0",
0"-
0".
0"/
1"<
0"=
0">
0"?
b11000000000000 "`
0"X
b0 "K
0"Q
b0 "E
0"Y
0"(
b0 "\
b0 "H
b0 "I
b0 "F
0"^
0"_
b0 "S
b0 "f
b0 "h
1u
15
#3
0u
05
#4
1u
15
#5
0u
05
#6
1u
15
#7
0u
05
#8
1u
15
#9
0u
05
#10
1u
15
#11
0"O
0"a
0u
1"9
05
1K
#12
1u
15
#13
0u
05
#14
1u
15
#15
0u
05
#16
1u
15
#17
0u
05
#18
1u
15
#19
0u
05
#20
1u
15
#21
b1010010101011010 "V
b1010010101011010 z
b1010010101011010 :
b111 "L
0u
1|
1v
1w
1x
05
1<
16
17
18
b111 S
#22
1u
15
#23
0u
05
#24
1u
15
#25
0u
05
#26
1u
15
b1010010101011010 R
#27
0u
05
b1010010101011010 P
1<
#28
1u
15
#29
0u
05
#30
1u
15
#31
0u
05
#32
1u
15
#33
0u
05
1<
#34
1u
15
#35
0u
05
#36
1u
15
#37
0u
05
#38
1u
15
#39
b11000000000000 "V
b1 "L
0u
1}
0w
0x
0|
05
1=
07
08
b0 z
b0 :
b0 T
b1 U
0<
#40
1"R
b1 "S
1u
15
#41
0u
05
#42
0"R
b11 "S
1u
15
#43
0u
05
#44
b10 "S
1u
0}
15
0=
#45
0u
05
#46
b0 "S
1u
15
#47
0u
05
#48
1u
15
#49
0u
1}
05
1=
b1 T
b1 z
b1 :
#50
1"R
b1 "S
1u
15
#51
0u
05
#52
1@
1"'
0"R
b1 "H
b11 "S
1u
15
#53
0u
05
#54
b10 "S
1u
0}
15
0=
#55
0u
05
#56
b0 "S
1u
15
#57
0u
05
#58
1u
15
#59
0u
1}
05
1=
b0 T
b0 z
b0 :
#60
1"R
b1 "S
1u
15
#61
0u
05
#62
0@
0"'
0"R
b0 "H
b11 "S
1u
15
#63
0u
05
#64
b10 "S
1u
0}
15
0=
#65
0u
05
#66
b0 "S
1u
15
#67
0u
05
#68
1u
15
#69
0u
1}
05
1=
b1000000000 T
b1000000000 z
b1000000000 :
#70
1"R
b1 "S
1u
15
#71
0u
05
#72
1O
1"A
0"R
b1000000000 "H
b11 "S
1u
15
#73
0u
05
#74
b10 "S
1u
0}
15
0=
#75
0u
05
#76
b0 "S
1u
15
#77
0u
05
#78
1u
15
#79
0u
1}
05
1=
b0 T
b0 z
b0 :
#80
1"R
b1 "S
1u
15
#81
0u
05
#82
0O
0"A
0"R
b0 "H
b11 "S
1u
15
#83
0u
05
#84
b10 "S
1u
0}
15
0=
#85
0u
05
#86
b0 "S
1u
15
#87
0u
05
#88
1u
15
#89
0u
1}
05
1=
b1 T
b1 z
b1 :
#90
1"R
b1 "S
1u
15
#91
0u
05
#92
1@
1"'
0"R
b1 "H
b11 "S
1u
15
#93
0u
05
#94
b10 "S
1u
0}
15
0=
#95
0u
05
#96
b0 "S
1u
15
#97
0u
05
#98
1u
15
#99
0u
1}
05
1=
b10 T
b10 z
b10 :
#100
1"R
b1 "S
1u
15
#101
0u
05
#102
0@
1'
0"'
1g
0"R
b10 "H
b11 "S
1u
15
#103
0u
05
#104
b10 "S
1u
0}
15
0=
#105
0u
05
#106
b0 "S
1u
15
#107
0u
05
#108
1u
15
#109
0u
1}
05
1=
b100 T
b100 z
b100 :
#110
1"R
b1 "S
1u
15
#111
0u
05
#112
0'
1(
0g
1h
0"R
b100 "H
b11 "S
1u
15
#113
0u
05
#114
b10 "S
1u
0}
15
0=
#115
0u
05
#116
b0 "S
1u
15
#117
0u
05
#118
1u
15
#119
0u
1}
05
1=
b1000 T
b1000 z
b1000 :
#120
1"R
b1 "S
1u
15
#121
0u
05
#122
0(
1F
0h
1"4
0"R
b1000 "H
b11 "S
1u
15
#123
0u
05
#124
b10 "S
1u
0}
15
0=
#125
0u
05
#126
b0 "S
1u
15
#127
0u
05
#128
1u
15
#129
0u
1}
05
1=
b100000000 T
b100000000 z
b100000000 :
#130
1"R
b1 "S
1u
15
#131
0u
05
#132
0F
1C
0"4
1"1
0"R
b100000000 "H
b11 "S
1u
15
#133
0u
05
#134
b10 "S
1u
0}
15
0=
#135
0u
05
#136
b0 "S
1u
15
#137
0u
05
#138
1u
15
#139
0u
1}
05
1=
b1000000000 T
b1000000000 z
b1000000000 :
#140
1"R
b1 "S
1u
15
#141
0u
05
#142
0C
1O
0"1
1"A
0"R
b1000000000 "H
b11 "S
1u
15
#143
0u
05
#144
b10 "S
1u
0}
15
0=
#145
0u
05
#146
b0 "S
1u
15
#147
0u
05
#148
1u
15
#149
0u
1}
05
1=
b10000000000 T
b10000000000 z
b10000000000 :
#150
1"R
b1 "S
1u
15
#151
0u
05
#152
0O
1"
0"A
1b
0"R
b10000000000 "H
b11 "S
1u
15
#153
0u
05
#154
b10 "S
1u
0}
15
0=
#155
0u
05
#156
b0 "S
1u
15
#157
0u
05
#158
1u
15
#159
0u
1}
05
1=
b100000000000 T
b100000000000 z
b100000000000 :
#160
1"R
b1 "S
1u
15
#161
0u
05
#162
0"
1.
0b
1n
0"R
b100000000000 "H
b11 "S
1u
15
#163
0u
05
#164
b10 "S
1u
0}
15
0=
#165
0u
05
#166
b0 "S
1u
15
#167
0u
05
#168
1u
15
#169
0u
1}
05
1=
b1000000000000 T
b1000000000000 z
b1000000000000 :
#170
1"R
b1 "S
1u
15
#171
0u
05
#172
0.
10
0n
1p
0"R
b1000000000000 "H
b11 "S
1u
15
#173
0u
05
#174
b10 "S
1u
0}
15
0=
#175
0u
05
#176
b0 "S
1u
15
#177
0u
05
#178
1u
15
#179
0u
1}
05
1=
b10000000000000 T
b10000000000000 z
b10000000000000 :
#180
1"R
b1 "S
1u
15
#181
0u
05
#182
00
1M
0p
1";
0"R
b10000000000000 "H
b11 "S
1u
15
#183
0u
05
#184
b10 "S
1u
0}
15
0=
#185
0u
05
#186
b0 "S
1u
15
#187
0u
05
#188
1u
15
#189
0u
1}
05
1=
b100000000000000 T
b100000000000000 z
b100000000000000 :
#190
1"R
b1 "S
1u
15
#191
0u
05
#192
0M
b0 k
b0 +
1,
0";
1l
0"R
b100000000000000 "H
b11 "S
1u
15
#193
0u
05
#194
b10 "S
1u
0}
15
0=
#195
0u
05
#196
b0 "S
1u
15
#197
0u
05
#198
1u
15
#199
0u
1}
05
1=
b1000000000000000 T
b1000000000000000 z
b1000000000000000 :
#200
1"R
b1 "S
1u
15
#201
0u
05
#202
bz k
bz +
0,
1*
0l
1j
0"R
b1000000000000000 "H
b11 "S
1u
15
#203
0u
05
#204
b10 "S
1u
0}
15
0=
#205
0u
05
#206
b0 "S
1u
15
#207
0u
05
#208
1u
15
#209
0u
1}
05
1=
b0 T
b0 z
b0 :
#210
1"R
b1 "S
1u
15
#211
0u
05
#212
0*
0j
0"R
b0 "H
b11 "S
1u
15
#213
0u
05
#214
b10 "S
1u
0}
15
0=
#215
0u
05
#216
b0 "S
1u
15
#217
0u
05
#218
1u
15
#219
0u
05
bz z
bz :
#220
1u
15
#221
0u
05
#222
1u
15
#223
0u
05
#224
1u
15
#225
0u
05
#226
1u
15
#227
0u
05
#228
1u
15
#229
0u
1}
05
1=
b100000000000000 z
b100000000000000 :
b100000000000000 T
#230
1"R
b1 "S
1u
15
#231
0u
05
#232
b0 k
b0 +
1,
1l
0"R
b100000000000000 "H
b11 "S
1u
15
#233
0u
05
#234
b10 "S
1u
0}
15
0=
#235
0u
05
#236
b0 "S
1u
15
#237
0u
05
#238
1u
15
#239
b0 "V
b110 "L
0u
1}
0v
1w
1x
05
1=
06
17
18
b1001000110100 T
b110 U
b1001000110100 z
b1001000110100 :
#240
1"R
b1 "S
1u
15
#241
0u
05
#242
b1001000110100 k
b1001000110100 +
b1001000110100 "V
0"R
b1001000110100 "I
b11 "S
1u
15
#243
0u
05
#244
b10 "S
1u
0}
15
0=
#245
0u
05
#246
b0 "S
1u
15
#247
0u
05
#248
1u
15
#249
b11000000000000 "V
b1 "L
0u
1}
1v
0w
0x
05
1=
16
07
08
b0 T
b1 U
b0 z
b0 :
#250
1"R
b1 "S
1u
15
#251
0u
05
#252
bz k
bz +
0,
0l
0"R
b0 "H
b11 "S
1u
15
#253
0u
05
#254
b10 "S
1u
0}
15
0=
#255
0u
05
#256
b0 "S
1u
15
#257
0u
05
#258
1u
15
#259
0u
05
bz z
bz :
#260
1u
15
#261
0u
05
#262
1u
15
#263
0u
05
#264
1u
15
#265
0u
05
#266
1u
15
#267
0u
05
#268
1u
15
#269
b1001000110100 "V
b110 "L
0u
1}
0v
1w
1x
05
1=
06
17
18
b1010010100000000 z
b1010010100000000 :
b1010010100000000 T
b110 U
#270
1"R
b1 "S
1u
15
#271
0u
05
#272
b1010010100000000 "V
0"R
b1010010100000000 "I
b11 "S
1u
15
#273
0u
05
#274
b10 "S
1u
0}
15
0=
#275
0u
05
#276
b0 "S
1u
15
#277
0u
05
#278
1u
15
#279
0u
1|
05
1<
b110 S
b1010010100000000 z
b1010010100000000 :
#280
1u
15
#281
0u
05
#282
1u
15
#283
0u
05
#284
1u
15
b1010010100000000 R
#285
0u
1}
0|
05
1=
b1011010 z
b1011010 :
b1011010 T
b1010010100000000 P
0<
#286
1"R
b1 "S
1u
15
#287
0u
05
#288
b1011010 "V
0"R
b1011010 "I
b11 "S
1u
15
#289
0u
05
#290
b10 "S
1u
0}
15
0=
#291
0u
05
#292
b0 "S
1u
15
#293
0u
05
#294
1u
15
#295
0u
1|
05
1<
b1011010 z
b1011010 :
#296
1u
15
#297
0u
05
#298
1u
15
#299
0u
05
#300
1u
15
b1011010 R
#301
b0 "V
b100 "L
x"D
b0x1000000000000 "`
0u
1}
0w
x"Z
0|
05
1=
07
b11 z
b11 :
b11 T
b100 U
bz i
bz )
b1011010 P
0<
#302
1"R
b1 "S
1u
15
#303
0u
05
#304
0"R
b110000000000000000 "F
b11 "S
1u
15
#305
0u
05
#306
b10 "S
1u
0}
15
0=
#307
0u
05
#308
b0 "S
1u
15
#309
0u
05
#310
1u
15
#311
b101 "L
0u
1}
1v
05
1=
16
b1001000110100 T
b101 U
b1001000110100 z
b1001000110100 :
#312
1"R
b1 "S
1u
15
#313
0u
05
#314
0"R
b110001001000110100 "F
b11 "S
1u
15
#315
0u
05
#316
b10 "S
1u
0}
15
0=
#317
0u
05
#318
b0 "S
1u
15
#319
0u
05
#320
1u
15
#321
b0x1000000000000 "V
b1 "L
0u
1}
0x
05
1=
08
b1000000000000000 T
b1 U
b1000000000000000 z
b1000000000000000 :
#322
1"R
b1 "S
1u
15
#323
0u
05
#324
b1000000000000 "V
0"D
b1000000000000 "`
0"Z
b110001001000110100 i
b110001001000110100 )
1*
1j
0"R
b1000000000000000 "H
b11 "S
1u
15
#325
0u
05
#326
b10 "S
1u
0}
15
0=
#327
0u
05
#328
b0 "S
1u
15
#329
0u
05
#330
1u
15
#331
0u
1}
05
1=
b0 T
b0 z
b0 :
#332
1"R
b1 "S
1u
15
#333
0u
05
#334
b0x1000000000000 "V
x"D
b0x1000000000000 "`
x"Z
bz i
bz )
0*
0j
0"R
b0 "H
b11 "S
1u
15
#335
0u
05
#336
b10 "S
1u
0}
15
0=
#337
0u
05
#338
b0 "S
1u
15
#339
0u
05
#340
1u
15
#341
b11 "V
b10 "L
0u
1}
0v
1w
05
1=
06
17
b1111111111111111 T
b10 U
b1111111111111111 z
b1111111111111111 :
#342
1"R
b1 "S
1u
15
#343
0u
05
#344
0"R
b1111111111111111 "E
b11 "S
1u
15
#345
0u
05
#346
b10 "S
1u
0}
15
0=
#347
0u
05
#348
b0 "S
1u
15
#349
0u
05
#350
1u
15
#351
b1010010101011010 "V
b111 "L
0u
1}
1v
1x
05
1=
16
18
b10111111111 T
b111 U
b1111111111111111 V
b101 W
b10111111111 z
b10111111111 :
#352
1"T
1"R
b1 "S
1u
15
#353
0u
05
#354
0"T
0"R
1"Q
b11 "S
1u
15
#355
0u
05
#356
0"Q
b10 "S
1u
0}
15
0=
#357
0u
05
#358
b0 "S
1u
15
#359
0u
05
#360
1u
15
#361
0u
05
bz z
bz :
#362
1u
15
#363
1"i
1"D
0"!
1"#
1"c
b11000011000000 "`
0u
1}
1"Z
1o
1"0
1a
05
1=
b10100000000 z
b10100000000 :
b10100000000 T
b0 V
b11010001010110 k
b11010001010110 +
b111111111111111111 i
b111111111111111111 )
1/
1B
1!
#364
1"W
1"T
0"i
1"d
1"M
1"G
1"R
0"<
1"=
b11000111000000 "`
b1 "S
b1 "h
1u
15
#365
0u
05
#366
b1011000111000000 "`
1;
0"T
1{
0"R
1"N
1"Q
b11010001010110 "I
b111111111111111111 "F
b11 "S
1u
15
#367
0u
05
#368
0"W
0"d
0"M
0"G
0"=
1">
b1011001011000000 "`
b10 "S
b10 "h
1u
0}
15
0=
#369
0u
05
#370
1O
1"A
0;
1"b
0{
0">
1"?
b11010011000000 "`
0"N
0"Q
b0 "S
b100 "h
1u
15
#371
0u
05
#372
1u
15
#373
0u
05
b0 Q
b0 ]
b0 \
bz z
bz :
#374
1u
15
#375
0u
05
#376
1u
15
#377
0u
05
#378
1u
15
#379
0u
05
#380
1u
15
#381
0u
05
#382
1u
15
#383
0"c
b11010001000000 "`
0u
0"0
0a
05
0B
0!
#384
0O
0"A
0"b
1"<
0"?
b11000001000000 "`
b0 "h
1u
15
#385
b11010001010110 "V
b11010001010110 z
b11010001010110 :
b110 "L
1"!
0"#
b11000000000000 "`
0u
1|
0v
0o
05
1<
06
0/
#386
1u
15
#387
0u
05
#388
1u
15
#389
0u
05
#390
1u
15
b11010001010110 R
#391
bz z
bz :
0u
0|
05
b11010001010110 P
0<
#392
1u
15
#393
b11 "V
b10 "L
0u
1}
0x
05
1=
08
b0 z
b0 :
b0 T
b10 U
#394
1"R
b1 "S
1u
15
#395
0u
05
#396
0"D
b1000000000000 "`
0"Z
0"R
b0 "E
b11 "S
1u
15
#397
0u
05
#398
b10 "S
1u
0}
15
0=
#399
0u
05
#400
b0 "S
1u
15
#401
0u
05
#402
1u
15
#403
x"D
b0x1000000000000 "`
0u
x"Z
05
bz k
bz +
bz i
bz )
bz z
bz :
#404
1u
15
#405
0"i
0"!
1"#
0"D
0"c
b1000011000000 "`
0u
1o
0"Z
1"0
1a
05
1/
b0 k
b0 +
b1111111111111111 i
b1111111111111111 )
1B
1!
#406
1u
b1 \
15
#407
0u
05
#408
1u
b10 \
15
#409
0u
05
#410
1u
b11 \
15
#411
0u
05
#412
1u
b100 \
15
#413
0u
05
#414
1u
b101 \
15
#415
0u
05
#416
1u
b110 \
15
#417
0u
05
#418
1u
b111 \
15
#419
0u
05
#420
1u
b1000 \
15
#421
0u
05
#422
1u
b1001 \
15
#423
0u
05
#424
1u
b1010 \
15
#425
0u
05
#426
1u
b1011 \
15
#427
0u
05
#428
1u
b1100 \
15
#429
0u
05
#430
1u
b1101 \
15
#431
0u
05
#432
1u
b1110 \
15
#433
0u
05
#434
1u
b1111 \
15
#435
0u
05
#436
1u
b10000 \
15
#437
0u
05
#438
1u
b10001 \
15
#439
0u
05
#440
1u
b10010 \
15
#441
0u
05
#442
1u
b10011 \
15
#443
0u
05
#444
1u
b10100 \
15
#445
0u
05
#446
1u
b10101 \
15
#447
0u
05
#448
1u
b10110 \
15
#449
0u
05
#450
1u
b10111 \
15
#451
0u
05
#452
1u
b11000 \
15
#453
0u
05
#454
1u
b11001 \
15
#455
0u
05
#456
1u
b11010 \
15
#457
0u
05
#458
1u
b11011 \
15
#459
0u
05
#460
1u
b11100 \
15
#461
0u
05
#462
1u
b11101 \
15
#463
0u
05
#464
1u
b11110 \
15
#465
0u
05
#466
1u
b11111 \
15
#467
0u
05
#468
1u
b100000 \
15
#469
0u
05
#470
1u
b100001 \
15
#471
0u
05
#472
1u
b100010 \
15
#473
0u
05
#474
1u
b100011 \
15
#475
0u
05
#476
1u
b100100 \
15
#477
0u
05
#478
1u
b100101 \
15
#479
0u
05
#480
1u
b100110 \
15
#481
0u
05
#482
1u
b100111 \
15
#483
0u
05
#484
1u
b101000 \
15
#485
0u
05
#486
1u
b101001 \
15
#487
0u
05
#488
1u
b101010 \
15
#489
0u
05
#490
1u
b101011 \
15
#491
0u
05
#492
1u
b101100 \
15
#493
0u
05
#494
1u
b101101 \
15
#495
0u
05
#496
1u
b101110 \
15
#497
0u
05
#498
1u
b101111 \
15
#499
0u
05
#500
1u
b110000 \
15
#501
0u
05
#502
1u
b110001 \
15
#503
0u
05
#504
1u
b110010 \
15
#505
0u
05
#506
1u
b110011 \
15
#507
0u
05
#508
1u
b110100 \
15
#509
0u
05
#510
1u
b110101 \
15
#511
0u
05
#512
1u
b110110 \
15
#513
0u
05
#514
1u
b110111 \
15
#515
0u
05
#516
1u
b111000 \
15
#517
0u
05
#518
1u
b111001 \
15
#519
0u
05
#520
1u
b111010 \
15
#521
0u
05
#522
1u
b111011 \
15
#523
0u
05
#524
1u
b111100 \
15
#525
0u
05
#526
1u
b111101 \
15
#527
0u
05
#528
1u
b111110 \
15
#529
0u
05
#530
1u
b0111111 \
15
#531
0u
05
#532
1u
b1000000 \
15
#533
0u
05
#534
1u
b1000001 \
15
#535
0u
05
#536
1u
b1000010 \
15
#537
0u
05
#538
1u
b1000011 \
15
#539
0u
05
#540
1u
b1000100 \
15
#541
0u
05
#542
1u
b1000101 \
15
#543
0u
05
#544
1u
b1000110 \
15
#545
0u
05
#546
1u
b1000111 \
15
#547
0u
05
#548
1u
b1001000 \
15
#549
0u
05
#550
1u
b1001001 \
15
#551
0u
05
#552
1u
b1001010 \
15
#553
0u
05
#554
1u
b1001011 \
15
#555
0u
05
#556
1u
b1001100 \
15
#557
0u
05
#558
1u
b1001101 \
15
#559
0u
05
#560
1u
b1001110 \
15
#561
0u
05
#562
1u
b1001111 \
15
#563
0u
05
#564
1u
b1010000 \
15
#565
0u
05
#566
1u
b1010001 \
15
#567
0u
05
#568
1u
b1010010 \
15
#569
0u
05
#570
1u
b1010011 \
15
#571
0u
05
#572
1u
b1010100 \
15
#573
0u
05
#574
1u
b1010101 \
15
#575
0u
05
#576
1u
b1010110 \
15
#577
0u
05
#578
1u
b1010111 \
15
#579
0u
05
#580
1u
b1011000 \
15
#581
0u
05
#582
1u
b1011001 \
15
#583
0u
05
#584
1u
b1011010 \
15
#585
0u
05
#586
1u
b1011011 \
15
#587
0u
05
#588
1u
b1011100 \
15
#589
0u
05
#590
1u
b1011101 \
15
#591
0u
05
#592
1u
b1011110 \
15
#593
0u
05
#594
1u
b1011111 \
15
#595
0u
05
#596
1u
b1100000 \
15
#597
0u
05
#598
1u
b1100001 \
15
#599
0u
05
#600
1u
b1100010 \
15
#601
0u
05
#602
1u
b1100011 \
15
#603
0u
05
#604
1u
b1100100 \
15
#605
0u
05
#606
1u
b1 Q
b1 ]
b1100101 \
15
#607
0u
05
#608
1u
15
#609
0u
05
#610
1u
15
#611
0u
05
#612
1u
15
#613
0u
05
#614
1u
15
#615
0u
05
#616
b1000001000000 "`
1u
0"0
0a
15
0B
0!
#617
0u
05
#618
1"!
0"#
b1000000000000 "`
1u
0o
15
0/
#619
0u
05
#620
1"R
b1 "S
1u
1}
15
1=
b0 z
b0 :
#621
0u
05
#622
0"R
b11 "S
1u
15
#623
0u
05
#624
1u
15
#625
0u
0}
05
0=
#626
b10 "S
1u
15
#627
0u
05
#628
b0 "S
1u
15
#629
0u
05
#630
x"D
b0x1000000000000 "`
1u
x"Z
15
bz k
bz +
bz i
bz )
bz z
bz :
#631
0u
05
#632
1u
15
#633
0u
05
#634
1u
15
#635
0u
05
#636
1u
15
#637
0u
05
#638
1u
15
#639
0u
05
#640
1"R
b1 "S
1u
1}
15
1=
b1000100010001000 z
b1000100010001000 :
b1000100010001000 T
#641
0u
05
#642
0"R
b1000100010001000 "E
b11 "S
1u
15
#643
0u
05
#644
1u
15
#645
0u
0}
05
0=
#646
b10 "S
1u
15
#647
0u
05
#648
b0 "S
1u
15
#649
0u
05
#650
1"T
1"R
b1 "S
b1010010101011010 "V
b111 "L
1u
1}
1v
1x
15
1=
16
18
b10111111111 T
b111 U
b1111111111111111 V
b10111111111 z
b10111111111 :
#651
0u
05
#652
0"T
0"R
1"Q
b11 "S
1u
15
#653
0u
05
#654
0"Q
1u
15
#655
0u
0}
05
0=
#656
b10 "S
1u
15
#657
0u
05
#658
b0 "S
1u
15
#659
0u
05
#660
1u
15
bz z
bz :
#661
0u
05
#662
1"W
1"d
1"M
1"G
0"<
1"=
b1 "h
0"i
0"!
1"#
1"D
1"c
b11000111000000 "`
1u
1o
1"Z
1"0
1a
15
1/
b0 k
b0 +
b100010001000100000 i
b100010001000100000 )
1B
1!
#663
0u
05
#664
b1011000111000000 "`
1;
1"T
1{
1"R
1"N
b0 "I
b100010001000100000 "F
b1 "S
1u
1}
15
1=
b10100000000 z
b10100000000 :
b10100000000 T
b0 V
#665
0u
05
#666
0"T
0"R
1"Q
b11 "S
1u
15
#667
0u
05
#668
0"W
0"d
0"M
0"G
0"=
1">
b1011001011000000 "`
b10 "h
1u
15
#669
0u
0}
05
0=
#670
1O
1"A
0;
1"b
0{
0">
1"?
b11010011000000 "`
0"N
0"Q
b10 "S
b100 "h
1u
15
#671
0u
05
